module gitlab.com/gitlab-org/gitaly/tools/gotestsum

go 1.23

require gotest.tools/gotestsum v1.12.0

require (
	github.com/bitfield/gotestdox v0.2.2 // indirect
	github.com/dnephin/pflag v1.0.7 // indirect
	github.com/fatih/color v1.16.0 // indirect
	github.com/fsnotify/fsnotify v1.7.0 // indirect
	github.com/google/shlex v0.0.0-20191202100458-e7afc7fbc510 // indirect
	github.com/mattn/go-colorable v0.1.13 // indirect
	github.com/mattn/go-isatty v0.0.20 // indirect
	golang.org/x/mod v0.16.0 // indirect
	golang.org/x/sync v0.6.0 // indirect
	golang.org/x/sys v0.18.0 // indirect
	golang.org/x/term v0.18.0 // indirect
	golang.org/x/text v0.14.0 // indirect
	golang.org/x/tools v0.19.0 // indirect
)
